^E:\FALL 2018\DISCRETE\PROG1\PROGRAM_1\PROGRAM_1\STDAFX.CPP
/c /ZI /nologo /W3 /WX- /diagnostics:classic /sdl /Od /Oy- /D WIN32 /D _DEBUG /D _CONSOLE /D _UNICODE /D UNICODE /Gm- /EHsc /RTC1 /MDd /GS /fp:precise /permissive- /Zc:wchar_t /Zc:forScope /Zc:inline /Yc"stdafx.h" /Fp"DEBUG\PROGRAM_1.PCH" /Fo"DEBUG\\" /Fd"DEBUG\VC141.PDB" /Gd /TP /analyze- /FC E:\FALL 2018\DISCRETE\PROG1\PROGRAM_1\PROGRAM_1\STDAFX.CPP
^E:\FALL 2018\DISCRETE\PROG1\PROGRAM_1\PROGRAM_1\PROGRAM_1.CPP
/c /ZI /nologo /W3 /WX- /diagnostics:classic /sdl /Od /Oy- /D WIN32 /D _DEBUG /D _CONSOLE /D _UNICODE /D UNICODE /Gm- /EHsc /RTC1 /MDd /GS /fp:precise /permissive- /Zc:wchar_t /Zc:forScope /Zc:inline /Yu"stdafx.h" /Fp"DEBUG\PROGRAM_1.PCH" /Fo"DEBUG\\" /Fd"DEBUG\VC141.PDB" /Gd /TP /analyze- /FC E:\FALL 2018\DISCRETE\PROG1\PROGRAM_1\PROGRAM_1\PROGRAM_1.CPP
